Estudo Dirigido/ED09/vcd/Guia_0907.vcd
$date
	Sat Apr 26 15:48:13 2025
$end
$version
	Icarus Verilog
$end
$timescale
	1s
$end
$scope module Guia_0907 $end
$var wire 1 ! clk $end
$upscope $end
$scope module Guia_0907 $end
$var wire 1 " pulse_out $end
$upscope $end
$enddefinitions $end
$comment Show the parameter values. $end
$dumpall
$end
#0
$dumpvars
0"
0!
$end
#12
1"
1!
#17
0"
#24
0!
#36
1"
1!
#41
0"
#48
0!
#60
1"
1!
#65
0"
#72
0!
#84
1"
1!
#89
0"
#96
0!
#108
1"
1!
#113
0"
#120
0!
#132
1"
1!
#137
0"
#144
0!
#156
1"
1!
#161
0"
#168
0!
#180
1"
1!
#185
0"
#192
0!
#204
1"
1!
#209
0"
#216
0!
#228
1"
1!
#233
0"
