Estudo Dirigido/ED09/vcd/Guia_0906.vcd
$date
	Sat Apr 26 15:48:11 2025
$end
$version
	Icarus Verilog
$end
$timescale
	1s
$end
$scope module Guia_0906 $end
$var wire 1 ! clk $end
$upscope $end
$scope module Guia_0906 $end
$var wire 1 " pulse_out $end
$upscope $end
$enddefinitions $end
$comment Show the parameter values. $end
$dumpall
$end
#0
$dumpvars
0"
0!
$end
#12
1!
#24
1"
0!
#28
0"
#36
1!
#48
1"
0!
#52
0"
#60
1!
#72
1"
0!
#76
0"
#84
1!
#96
1"
0!
#100
0"
#108
1!
#120
1"
0!
#124
0"
#132
1!
#144
1"
0!
#148
0"
#156
1!
#168
1"
0!
#172
0"
#180
1!
#192
1"
0!
#196
0"
#204
1!
#216
1"
0!
#220
0"
#228
1!
#240
1"
0!
